results; oscil_90min_12b_020avg_150s_150o.yml; 1; 0; 0.2110; 2.3022; 0.1016; 0.0040
results; oscil_90min_12b_020avg_150s_150o.yml; 1; 1; 0.0902; 1.7014; 0.0071; 0.0011
results; oscil_90min_12b_020avg_150s_150o.yml; 2; 0; 0.1175; 2.0504; -0.0315; 0.0018
results; oscil_90min_12b_020avg_150s_150o.yml; 2; 1; 0.1599; 2.6104; -0.0249; 0.0029
results; oscil_90min_12b_020avg_150s_150o.yml; 3; 0; 0.1397; 1.9699; -0.0663; 0.0017
results; oscil_90min_12b_020avg_150s_150o.yml; 3; 1; 0.1239; 1.6002; -0.0883; 0.0017
